module github.com/hardmet/hackerrank

go 1.23.2

toolchain go1.23.6

require (
	4d63.com/strrev v1.1.0 // indirect
	dario.cat/mergo v1.0.1 // indirect
	emperror.dev/errors v0.8.1 // indirect
	github.com/Azure/go-ansiterm v0.0.0-20210617225240-d185dfc1b5a1 // indirect
	github.com/Microsoft/go-winio v0.6.1 // indirect
	github.com/Microsoft/hcsshim v0.11.4 // indirect
	github.com/antlr/antlr4/runtime/Go/antlr v1.4.10 // indirect
	github.com/aws/aws-sdk-go v1.55.6 // indirect
	github.com/cenkalti/backoff/v4 v4.2.1 // indirect
	github.com/cespare/xxhash/v2 v2.3.0 // indirect
	github.com/containerd/containerd v1.7.12 // indirect
	github.com/containerd/log v0.1.0 // indirect
	github.com/cpuguy83/dockercfg v0.3.1 // indirect
	github.com/creasty/defaults v1.6.0 // indirect
	github.com/davecgh/go-spew v1.1.2-0.20180830191138-d8f796af33cc // indirect
	github.com/dgryski/go-rendezvous v0.0.0-20200823014737-9f7001d12a5f // indirect
	github.com/distribution/reference v0.5.0 // indirect
	github.com/docker/docker v25.0.5+incompatible // indirect
	github.com/docker/go-connections v0.5.0 // indirect
	github.com/docker/go-units v0.5.0 // indirect
	github.com/en-vee/aconf v0.0.0-20190302084711-a3ed365b7cff // indirect
	github.com/felixge/httpsnoop v1.0.4 // indirect
	github.com/fsnotify/fsnotify v1.8.0 // indirect
	github.com/gabriel-vasile/mimetype v1.4.8 // indirect
	github.com/go-chi/chi/v5 v5.2.1 // indirect
	github.com/go-logr/logr v1.4.2 // indirect
	github.com/go-logr/stdr v1.2.2 // indirect
	github.com/go-ole/go-ole v1.2.6 // indirect
	github.com/go-playground/locales v0.14.1 // indirect
	github.com/go-playground/universal-translator v0.18.1 // indirect
	github.com/go-playground/validator/v10 v10.25.0 // indirect
	github.com/gogo/protobuf v1.3.2 // indirect
	github.com/golang/protobuf v1.5.3 // indirect
	github.com/google/uuid v1.6.0 // indirect
	github.com/hashicorp/hcl v1.0.0 // indirect
	github.com/imagekit-developer/imagekit-go v0.0.0-20240521071536-1d7e6e67fcd7 // indirect
	github.com/inconshreveable/mousetrap v1.1.0 // indirect
	github.com/jackc/pgpassfile v1.0.0 // indirect
	github.com/jackc/pgservicefile v0.0.0-20221227161230-091c0ba34f0a // indirect
	github.com/jackc/pgx/v5 v5.5.5 // indirect
	github.com/jarcoal/httpmock v1.3.1 // indirect
	github.com/jdevelop/go-hocon v0.0.0-20170907174136-3818818d1e40 // indirect
	github.com/jmespath/go-jmespath v0.4.0 // indirect
	github.com/klauspost/compress v1.17.11 // indirect
	github.com/leodido/go-urn v1.4.0 // indirect
	github.com/lufia/plan9stats v0.0.0-20211012122336-39d0f177ccd0 // indirect
	github.com/magiconair/properties v1.8.9 // indirect
	github.com/mitchellh/mapstructure v1.5.0 // indirect
	github.com/moby/patternmatcher v0.6.0 // indirect
	github.com/moby/sys/sequential v0.5.0 // indirect
	github.com/moby/sys/user v0.1.0 // indirect
	github.com/moby/term v0.5.0 // indirect
	github.com/morikuni/aec v1.0.0 // indirect
	github.com/opencontainers/go-digest v1.0.0 // indirect
	github.com/opencontainers/image-spec v1.1.0 // indirect
	github.com/oxyno-zeta/s3-proxy v0.0.0-20250220214310-c611c741ed48 // indirect
	github.com/pelletier/go-toml/v2 v2.2.3 // indirect
	github.com/pkg/errors v0.9.1 // indirect
	github.com/pmezard/go-difflib v1.0.1-0.20181226105442-5d4384ee4fb2 // indirect
	github.com/power-devops/perfstat v0.0.0-20210106213030-5aafc221ea8c // indirect
	github.com/redis/go-redis/v9 v9.5.1 // indirect
	github.com/sagikazarmark/locafero v0.7.0 // indirect
	github.com/sagikazarmark/slog-shim v0.1.0 // indirect
	github.com/shirou/gopsutil/v3 v3.23.12 // indirect
	github.com/shoenig/go-m1cpu v0.1.6 // indirect
	github.com/sirupsen/logrus v1.9.3 // indirect
	github.com/sourcegraph/conc v0.3.0 // indirect
	github.com/spf13/afero v1.12.0 // indirect
	github.com/spf13/cast v1.7.1 // indirect
	github.com/spf13/cobra v1.8.1 // indirect
	github.com/spf13/pflag v1.0.6 // indirect
	github.com/spf13/viper v1.19.0 // indirect
	github.com/stretchr/testify v1.10.0 // indirect
	github.com/subosito/gotenv v1.6.0 // indirect
	github.com/testcontainers/testcontainers-go v0.30.0 // indirect
	github.com/testcontainers/testcontainers-go/modules/postgres v0.30.0 // indirect
	github.com/testcontainers/testcontainers-go/modules/redis v0.30.0 // indirect
	github.com/tklauser/go-sysconf v0.3.12 // indirect
	github.com/tklauser/numcpus v0.6.1 // indirect
	github.com/yusufpapurcu/wmi v1.2.3 // indirect
	go.opentelemetry.io/contrib/instrumentation/net/http/otelhttp v0.54.0 // indirect
	go.opentelemetry.io/otel v1.29.0 // indirect
	go.opentelemetry.io/otel/metric v1.29.0 // indirect
	go.opentelemetry.io/otel/trace v1.29.0 // indirect
	go.uber.org/atomic v1.11.0 // indirect
	go.uber.org/mock v0.5.0 // indirect
	go.uber.org/multierr v1.11.0 // indirect
	golang.org/x/crypto v0.32.0 // indirect
	golang.org/x/exp v0.0.0-20250207012021-f9890c6ad9f3 // indirect
	golang.org/x/mod v0.22.0 // indirect
	golang.org/x/net v0.34.0 // indirect
	golang.org/x/sys v0.30.0 // indirect
	golang.org/x/text v0.22.0 // indirect
	golang.org/x/tools v0.29.0 // indirect
	google.golang.org/genproto/googleapis/rpc v0.0.0-20241223144023-3abc09e42ca8 // indirect
	google.golang.org/grpc v1.67.3 // indirect
	google.golang.org/protobuf v1.36.5 // indirect
	gopkg.in/ini.v1 v1.67.0 // indirect
	gopkg.in/validator.v2 v2.0.1 // indirect
	gopkg.in/yaml.v3 v3.0.1 // indirect
)
